[
 {
   "front": "¿Pero por qué te buscaban?",
   "rear": "But why were they looking for you?"
 },
 {
   "front": "¡Hoy será el día de tu juicio final!",
   "rear": "Today will be the day of your final judgement!"
 },
 {
   "front": "¿Todavía recuerdas ese día?",
   "rear": "Do you still remember that day?"
 },
 {
   "front": "Eso me hace muy feliz",
   "rear": "That makes me very happy"
 },
 {
   "front": "¿De verdad crees que puedes vencerme?",
   "rear": "Do you really think that you can beat me?"
 },
 {
   "front": "Hoy te has librado. Pero la próxima vez...",
   "rear": "Today you have been freed. But the next time..."
 },
 {
   "front": "Porque si no...Tendré que convincerte con mi hacha",
   "rear": "Because if not...I will have to convince you with my axe"
 },
 {
   "front": "Perdona chico...no estamos interesados en tus amigos.",
   "rear": "Pardon boy...but we are not interested in your friends."
 },
 {
   "front": "Venimos a por ti...Sé bueno y ven con nosotros.",
   "rear": "We came for you...Be good and come with us."
 },
 {
   "front": "Tendríamos un vida llena de ansiedad y temores.",
   "rear": "We would have a life full of anxiety and fear."
 },
 {
   "front": "Todos dicen que es un lugar espeluznante.",
   "rear": "They all say that it is a creepy place."
 },
 {
   "front": "He vivido aquí desde hace 5 años.",
   "rear": "I have lived here since 5 years ago."
 },
 {
   "front": "Parece que hoy será otro día caluroso.",
   "rear": "It appears that today will be another hot day."
 },
 {
   "front": "En cualquier caso...(el) tendrá un buen motivo para ello.",
   "rear": "In either case...(he) will have a good reason for it"
 },
 {
   "front": "Estaría bien que la vistaras.",
   "rear": "It will be good that you will visit him."
 },
 {
   "front": "Bueno...todavía tengo tareas que terminar.",
   "rear": "Well...I still have chores to finish."
 },
 {
   "front": "¿Por qué quieres saber su nombre?",
   "rear": "Why do you want to know his name?"
 },
 {
   "front": "No deberías romper una promesa sin un motivo.",
   "rear": "You shouldn't break a promise without any reason."
 },
 {
   "front": "Aquí ha estado eternamente",
   "rear": "(The sea) has been here eternally"
 },
 {
   "front": "¿No has olvidado la promesa que hicimos ese día?",
   "rear": "You haven't forgotten the promise we made that day?"
 },
 {
   "front": "Sería desmasiado bueno para ser cierto.",
   "rear": "It would be too good to be true."
 },
 {
   "front": "Repraría mi barco y compraría una nueva vela.",
   "rear": "I would repair my boat and buy a new sail."
 },
 {
   "front": "Empiezo a sentir nauseas.",
   "rear": "I'm starting to feel nauseous."
 },
 {
   "front": "Parece que estoy causando un gran revuelo.",
   "rear": "It appears that I am causing a great stir."
 },
 {
   "front": "¿Qué acabas de decir?",
   "rear": "What did you just say?"
 },
 {
   "front": "¿Qué estás mirando? Yo trabajo aquí.",
   "rear": "What are you looking at? I work here."
 },
 {
   "front": "Sal de mi camino. Estás molestándome.",
   "rear": "Get out of my way. You're annoying me."
 },
 {
   "front": "¿Serías tan amable de darnos esa flor?",
   "rear": "Would you be so kind as to give us that flower?"
 },
 {
   "front": "La necesitamos para nuestras oraciones.",
   "rear": "We need it for our prayers."
 },
 {
   "front": "¿Eschucháis ese aullido que viene de ahí abajo?",
   "rear": "Do you hear that sound coming from under there?"
 },
 {
   "front": "Tú eres el único que vi por aquí cuando llegué.",
   "rear": "You were the only I saw here when I arrived"
 },
 {
   "front": "¿Por qué querrían excavar en un lugar como ese?",
   "rear": "Why would they want to dig in a place like that?"
 },
 {
   "front": "Os puedo llevar donde queráis con esta barca.",
   "rear": "I can take where you want with this boat."
 },
 {
   "front": "¿Recuerdas cuando éramos así?",
   "rear": "Do you remember when we were like that?"
 },
 {
   "front": "No esperaba verte por aquí.",
   "rear": "I didn't expect to see you here."
 },
 {
   "front": "Volveré para comprar flores.",
   "rear": "I will come back to buy flowers."
 },
 {
   "front": "Ultimamente parecía estar un poco aturdido.",
   "rear": "Lately he seemed to be a bit dazed."
 },
 {
   "front": "Hay algo que siempre he querido decirte...",
   "rear": "There is something that I always have wanted to say to you..."
 },
 {
   "front": "Cada día parecía una eternidad",
   "rear": "Each day seemed an eternity"
 },
 {
    "front":"Casi lo olvido...Dejame darte esto. ",
    "rear":"I almost forgot...let me give you this."
 },
  {
    "front":"Pensé que seriáis mas mayores...",
    "rear":"I thought that you would be older..."
  },
  {
    "front":"Nadie quiere ir alli porque les da miedo",
    "rear":"Nobody wants to go there because it gives them the creeps"
  },
  {
    "front":"No puedo creer que tratara de engañarnos así.",
    "rear":"I can't believe that he would try deceive us like that."
  },
  {
    "front":"Puedo recoger flores de otros lugares.",
    "rear":"I can pick flowers from another place."
  },
  {
    "front":"Entonces debéis ser turistas que vienen a ver el festival.",
    "rear":"Then you must be tourists that come to see the festival."
  },
  {
    "front":"Pero sin él, estamos en un aprieto.",
    "rear":"But without him, we are in a fix."
  },
  {
    "front":"No podemos empezar los ensayos para el concierto",
    "rear":"We can not start rehearsals for the concert"
  },
  {
    "front":"Pero qué tonto intentaría encontrarlo?",
    "rear":"But what fool would try to find it?"
  },
  {
    "front":"No ayudarías una bonita chica en apuros?",
    "rear":"Won't you help a pretty girl in distress?"
  },
  {
    "front":"Pero si cambias de idea, por favor házmelo saber.",
    "rear":"But if you change your mind, please let me know."
  },
  {
    "front":"Por eso traemos alguna cuando venimos aquí.",
    "rear":"That's why we bring some when we come here."
  },
  {
    "front":"Los niños lo tienen más fácil.",
    "rear":"Kids have it the easiest."
  },
  {
    "front":"Dime que no es cierto.",
    "rear":"Tell me that it isn't true."
  },
  {
    "front":"Pero vivir anclado al pasado es muy doloroso.",
    "rear":"But living anchored to the past is very painful."
  },
  {
    "front":"Huir no es un pecado, pero no te conduce a nada.",
    "rear":"Running away is not a sin, but it leads you to nothing."
  },
  {
    "front":"Os contraré un secreto si me dejáis ir con vosotros.",
    "rear":"I will tell you a secret if you let me go with you."
  },
  {
    "front":"Qué hay del secreto que ibas a contrarnos?",
    "rear":"What about the secret that you were going to tell us?"
  },
  {
    "front":"Te dejaré pasar si eres capaz de derrotarme.",
    "rear":"I will let you pass if you are able to defeat me."
  },
  {
    "front":"mejor esperamos aquí hasta la noche.",
    "rear":"It's best we wait here until nightfall."
  },
  {
    "front":"Vosotros debéis ser los nuevos ayudantes que me dijeron.",
    "rear":"You must be the new helpers that they told me about."
  },
  {
    "front":"Genial, llegáis justo a tiempo.",
    "rear":"Great, you arrived just in time"
  },
  {
    "front":"Encontrarás la llave en el aparador.",
    "rear":"You will find the key in the cupboard."
  },
  {
    "front":"Aquí está recompensa que prometí darte.",
    "rear":"Here is the payment that I promised to give you."
  },
  {
    "front":"Quién te dio permiso para atracar el barco ahi!?",
    "rear":"Who gave you permission to dock your boat there?"
  },
  {
    "front":"Te daré un permiso especial esta vez.",
    "rear":"I will give you special permission this time."
  },
  {
    "front":"Pero la próxima, no será tan fácil.",
    "rear":"But the next time, I won't be so lenient."
  },
  {
    "front":"Por qué no me dejáis que os acompañe?",
    "rear":"Why not let me accompany you guys?"
  }
]
